Final Project - McDonalds
…
## See spec(...) for full column specifications.

menu

## # A tibble: 260 x 24
##    Category  Item     `Serving Size` Calories `Calories from ~ `Total Fat`
##    <chr>     <chr>    <chr>             <int>            <int>       <dbl>
##  1 Breakfast Egg McM~ 4.8 oz (136 g)      300              120       13.0 
##  2 Breakfast Egg Whi~ 4.8 oz (135 g)      250               70        8.00
##  3 Breakfast Sausage~ 3.9 oz (111 g)      370              200       23.0 
##  4 Breakfast Sausage~ 5.7 oz (161 g)      450              250       28.0 
##  5 Breakfast Sausage~ 5.7 oz (161 g)      400              210       23.0 
##  6 Breakfast Steak &~ 6.5 oz (185 g)      430              210       23.0 
##  7 Breakfast Bacon, ~ 5.3 oz (150 g)      460              230       26.0 
##  8 Breakfast Bacon, ~ 5.8 oz (164 g)      520              270       30.0 
##  9 Breakfast Bacon, ~ 5.4 oz (153 g)      410              180       20.0 
## 10 Breakfast Bacon, ~ 5.9 oz (167 g)      470              220       25.0 
## # ... with 250 more rows, and 18 more variables: `Total Fat (% Daily
## #   Value)` <int>, `Saturated Fat` <dbl>, `Saturated Fat (% Daily
## #   Value)` <int>, `Trans Fat` <dbl>, Cholesterol <int>, `Cholesterol (%
## #   Daily Value)` <int>, Sodium <int>, `Sodium (% Daily Value)` <int>,
## #   Carbohydrates <int>, `Carbohydrates (% Daily Value)` <int>, `Dietary
## #   Fiber` <int>, `Dietary Fiber (% Daily Value)` <int>, Sugars <int>,
## #   Protein <int>, `Vitamin A (% Daily Value)` <int>, `Vitamin C (% Daily
## #   Value)` <int>, `Calcium (% Daily Value)` <int>, `Iron (% Daily
## #   Value)` <int>
…
